C:\Users\hkr\Documents\Masterthesis\Tools\eclipse-workspace\masterthesis_camunda_plugin\src\main\java\de\novatec\bpm\camunda_cockpit\plugin\SimulationPlugin.java
C:\Users\hkr\Documents\Masterthesis\Tools\eclipse-workspace\masterthesis_camunda_plugin\src\main\java\de\novatec\bpm\camunda_cockpit\plugin\db\ProcessDefinitionDto.java
C:\Users\hkr\Documents\Masterthesis\Tools\eclipse-workspace\masterthesis_camunda_plugin\src\main\java\de\novatec\bpm\camunda_cockpit\plugin\db\ProcessDefinitionResource.java
C:\Users\hkr\Documents\Masterthesis\Tools\eclipse-workspace\masterthesis_camunda_plugin\src\main\java\de\novatec\bpm\camunda_cockpit\plugin\resources\SimulationPluginRootResource.java
